[
    {
    "_id": 1,
    "name": "air_india",
    "type": "medium",
    "Seating_type": [
      {
        "ticket_type": "Business",
        "meal": "african"
      },
      {
        "ticket_type": "Class1",
        "meal": "hindu"
      }
    ]
  },
  {
    "_id": 2,
    "name": "jet_airways",
    "type": "small",
    "Seating_type": [
      {
        "ticket_type": "Business",
        "meal": "american"
      },
      {
        "ticket_type": "Class1",
        "meal": "hindu"
      }
    ]
  },{
    "_id": 3,
    "name": "indigo",
    "type": "big",
    "Seating_type": [
      {
        "ticket_type": "Business",
        "meal": "brazilian"
      },
      {
        "ticket_type": "Class1",
        "meal": "canadian"
      }
    ]
  }
]